<svg xmlns="http://www.w3.org/2000/svg" width="126" height="133" viewBox="0 0 126 133">
  <g id="Groupe_16" data-name="Groupe 16" transform="translate(-897 -913)">
    <ellipse id="Ellipse_1643" data-name="Ellipse 1643" cx="63" cy="54.5" rx="63" ry="54.5" transform="translate(897 937)" fill="#98cd98"/>
    <text id="_" data-name="+" transform="translate(926 1021)" fill="#f8fdf8" font-size="100" font-family="Ebrima"><tspan x="0" y="0">+</tspan></text>
  </g>
</svg>
